# Material Count: 101

newmtl mat0
Ns 225.000000
Ka 1.000000 1.000000 1.000000
Kd 0.800000 0.800000 0.800000
Ks 0.000000 0.000000 0.000000
Ke 0.000000 0.000000 0.000000
Ni 0.000000
d 1.000000
illum 2
map_Kd textures/mat0.png
newmtl mat1
Ns 225.000000
Ka 1.000000 1.000000 1.000000
Kd 0.800000 0.800000 0.800000
Ks 0.000000 0.000000 0.000000
Ke 0.000000 0.000000 0.000000
Ni 0.000000
d 1.000000
illum 2
map_Kd textures/mat1.png
newmtl mat2
Ns 225.000000
Ka 1.000000 1.000000 1.000000
Kd 0.800000 0.800000 0.800000
Ks 0.000000 0.000000 0.000000
Ke 0.000000 0.000000 0.000000
Ni 0.000000
d 1.000000
illum 2
map_Kd textures/mat2.png
newmtl mat3
Ns 225.000000
Ka 1.000000 1.000000 1.000000
Kd 0.800000 0.800000 0.800000
Ks 0.000000 0.000000 0.000000
Ke 0.000000 0.000000 0.000000
Ni 0.000000
d 1.000000
illum 2
map_Kd textures/mat3.png
newmtl mat4
Ns 225.000000
Ka 1.000000 1.000000 1.000000
Kd 0.800000 0.800000 0.800000
Ks 0.000000 0.000000 0.000000
Ke 0.000000 0.000000 0.000000
Ni 0.000000
d 1.000000
illum 2
map_Kd textures/mat4.png
newmtl mat5
Ns 225.000000
Ka 1.000000 1.000000 1.000000
Kd 0.800000 0.800000 0.800000
Ks 0.000000 0.000000 0.000000
Ke 0.000000 0.000000 0.000000
Ni 0.000000
d 1.000000
illum 2
map_Kd textures/mat5.png
newmtl mat6
Ns 225.000000
Ka 1.000000 1.000000 1.000000
Kd 0.800000 0.800000 0.800000
Ks 0.000000 0.000000 0.000000
Ke 0.000000 0.000000 0.000000
Ni 0.000000
d 1.000000
illum 2
map_Kd textures/mat6.png
newmtl mat7
Ns 225.000000
Ka 1.000000 1.000000 1.000000
Kd 0.800000 0.800000 0.800000
Ks 0.000000 0.000000 0.000000
Ke 0.000000 0.000000 0.000000
Ni 0.000000
d 1.000000
illum 2
map_Kd textures/mat7.png
newmtl mat8
Ns 225.000000
Ka 1.000000 1.000000 1.000000
Kd 0.800000 0.800000 0.800000
Ks 0.000000 0.000000 0.000000
Ke 0.000000 0.000000 0.000000
Ni 0.000000
d 1.000000
illum 2
map_Kd textures/mat8.png
newmtl mat9
Ns 225.000000
Ka 1.000000 1.000000 1.000000
Kd 0.800000 0.800000 0.800000
Ks 0.000000 0.000000 0.000000
Ke 0.000000 0.000000 0.000000
Ni 0.000000
d 1.000000
illum 2
map_Kd textures/mat9.png
newmtl mat10
Ns 225.000000
Ka 1.000000 1.000000 1.000000
Kd 0.800000 0.800000 0.800000
Ks 0.000000 0.000000 0.000000
Ke 0.000000 0.000000 0.000000
Ni 0.000000
d 1.000000
illum 2
map_Kd textures/mat10.png
newmtl mat11
Ns 225.000000
Ka 1.000000 1.000000 1.000000
Kd 0.800000 0.800000 0.800000
Ks 0.000000 0.000000 0.000000
Ke 0.000000 0.000000 0.000000
Ni 0.000000
d 1.000000
illum 2
map_Kd textures/mat11.png
newmtl mat12
Ns 225.000000
Ka 1.000000 1.000000 1.000000
Kd 0.800000 0.800000 0.800000
Ks 0.000000 0.000000 0.000000
Ke 0.000000 0.000000 0.000000
Ni 0.000000
d 1.000000
illum 2
map_Kd textures/mat12.png
newmtl mat13
Ns 225.000000
Ka 1.000000 1.000000 1.000000
Kd 0.800000 0.800000 0.800000
Ks 0.000000 0.000000 0.000000
Ke 0.000000 0.000000 0.000000
Ni 0.000000
d 1.000000
illum 2
map_Kd textures/mat13.png
newmtl mat14
Ns 225.000000
Ka 1.000000 1.000000 1.000000
Kd 0.800000 0.800000 0.800000
Ks 0.000000 0.000000 0.000000
Ke 0.000000 0.000000 0.000000
Ni 0.000000
d 1.000000
illum 2
map_Kd textures/mat14.png
newmtl mat15
Ns 225.000000
Ka 1.000000 1.000000 1.000000
Kd 0.800000 0.800000 0.800000
Ks 0.000000 0.000000 0.000000
Ke 0.000000 0.000000 0.000000
Ni 0.000000
d 1.000000
illum 2
map_Kd textures/mat15.png
newmtl mat16
Ns 225.000000
Ka 1.000000 1.000000 1.000000
Kd 0.800000 0.800000 0.800000
Ks 0.000000 0.000000 0.000000
Ke 0.000000 0.000000 0.000000
Ni 0.000000
d 1.000000
illum 2
map_Kd textures/mat16.png
newmtl mat17
Ns 225.000000
Ka 1.000000 1.000000 1.000000
Kd 0.800000 0.800000 0.800000
Ks 0.000000 0.000000 0.000000
Ke 0.000000 0.000000 0.000000
Ni 0.000000
d 1.000000
illum 2
map_Kd textures/mat17.png
newmtl mat18
Ns 225.000000
Ka 1.000000 1.000000 1.000000
Kd 0.800000 0.800000 0.800000
Ks 0.000000 0.000000 0.000000
Ke 0.000000 0.000000 0.000000
Ni 0.000000
d 1.000000
illum 2
map_Kd textures/mat18.png
newmtl mat19
Ns 225.000000
Ka 1.000000 1.000000 1.000000
Kd 0.800000 0.800000 0.800000
Ks 0.000000 0.000000 0.000000
Ke 0.000000 0.000000 0.000000
Ni 0.000000
d 1.000000
illum 2
map_Kd textures/mat19.png
newmtl mat20
Ns 225.000000
Ka 1.000000 1.000000 1.000000
Kd 0.800000 0.800000 0.800000
Ks 0.000000 0.000000 0.000000
Ke 0.000000 0.000000 0.000000
Ni 0.000000
d 1.000000
illum 2
map_Kd textures/mat20.png
newmtl mat21
Ns 225.000000
Ka 1.000000 1.000000 1.000000
Kd 0.800000 0.800000 0.800000
Ks 0.000000 0.000000 0.000000
Ke 0.000000 0.000000 0.000000
Ni 0.000000
d 1.000000
illum 2
map_Kd textures/mat21.png
newmtl mat22
Ns 225.000000
Ka 1.000000 1.000000 1.000000
Kd 0.800000 0.800000 0.800000
Ks 0.000000 0.000000 0.000000
Ke 0.000000 0.000000 0.000000
Ni 0.000000
d 1.000000
illum 2
map_Kd textures/mat22.png
newmtl mat23
Ns 225.000000
Ka 1.000000 1.000000 1.000000
Kd 0.800000 0.800000 0.800000
Ks 0.000000 0.000000 0.000000
Ke 0.000000 0.000000 0.000000
Ni 0.000000
d 1.000000
illum 2
map_Kd textures/mat23.png
newmtl mat24
Ns 225.000000
Ka 1.000000 1.000000 1.000000
Kd 0.800000 0.800000 0.800000
Ks 0.000000 0.000000 0.000000
Ke 0.000000 0.000000 0.000000
Ni 0.000000
d 1.000000
illum 2
map_Kd textures/mat24.png
newmtl mat25
Ns 225.000000
Ka 1.000000 1.000000 1.000000
Kd 0.800000 0.800000 0.800000
Ks 0.000000 0.000000 0.000000
Ke 0.000000 0.000000 0.000000
Ni 0.000000
d 1.000000
illum 2
map_Kd textures/mat25.png
newmtl mat26
Ns 225.000000
Ka 1.000000 1.000000 1.000000
Kd 0.800000 0.800000 0.800000
Ks 0.000000 0.000000 0.000000
Ke 0.000000 0.000000 0.000000
Ni 0.000000
d 1.000000
illum 2
map_Kd textures/mat26.png
newmtl mat27
Ns 225.000000
Ka 1.000000 1.000000 1.000000
Kd 0.800000 0.800000 0.800000
Ks 0.000000 0.000000 0.000000
Ke 0.000000 0.000000 0.000000
Ni 0.000000
d 1.000000
illum 2
map_Kd textures/mat27.png
newmtl mat28
Ns 225.000000
Ka 1.000000 1.000000 1.000000
Kd 0.800000 0.800000 0.800000
Ks 0.000000 0.000000 0.000000
Ke 0.000000 0.000000 0.000000
Ni 0.000000
d 1.000000
illum 2
map_Kd textures/mat28.png
newmtl mat29
Ns 225.000000
Ka 1.000000 1.000000 1.000000
Kd 0.800000 0.800000 0.800000
Ks 0.000000 0.000000 0.000000
Ke 0.000000 0.000000 0.000000
Ni 0.000000
d 1.000000
illum 2
map_Kd textures/mat29.png
newmtl mat30
Ns 225.000000
Ka 1.000000 1.000000 1.000000
Kd 0.800000 0.800000 0.800000
Ks 0.000000 0.000000 0.000000
Ke 0.000000 0.000000 0.000000
Ni 0.000000
d 1.000000
illum 2
map_Kd textures/mat30.png
newmtl mat31
Ns 225.000000
Ka 1.000000 1.000000 1.000000
Kd 0.800000 0.800000 0.800000
Ks 0.000000 0.000000 0.000000
Ke 0.000000 0.000000 0.000000
Ni 0.000000
d 1.000000
illum 2
map_Kd textures/mat31.png
newmtl mat32
Ns 225.000000
Ka 1.000000 1.000000 1.000000
Kd 0.800000 0.800000 0.800000
Ks 0.000000 0.000000 0.000000
Ke 0.000000 0.000000 0.000000
Ni 0.000000
d 1.000000
illum 2
map_Kd textures/mat32.png
newmtl mat33
Ns 225.000000
Ka 1.000000 1.000000 1.000000
Kd 0.800000 0.800000 0.800000
Ks 0.000000 0.000000 0.000000
Ke 0.000000 0.000000 0.000000
Ni 0.000000
d 1.000000
illum 2
map_Kd textures/mat33.png
newmtl mat34
Ns 225.000000
Ka 1.000000 1.000000 1.000000
Kd 0.800000 0.800000 0.800000
Ks 0.000000 0.000000 0.000000
Ke 0.000000 0.000000 0.000000
Ni 0.000000
d 1.000000
illum 2
map_Kd textures/mat34.png
newmtl mat35
Ns 225.000000
Ka 1.000000 1.000000 1.000000
Kd 0.800000 0.800000 0.800000
Ks 0.000000 0.000000 0.000000
Ke 0.000000 0.000000 0.000000
Ni 0.000000
d 1.000000
illum 2
map_Kd textures/mat35.png
newmtl mat36
Ns 225.000000
Ka 1.000000 1.000000 1.000000
Kd 0.800000 0.800000 0.800000
Ks 0.000000 0.000000 0.000000
Ke 0.000000 0.000000 0.000000
Ni 0.000000
d 1.000000
illum 2
map_Kd textures/mat36.png
newmtl mat37
Ns 225.000000
Ka 1.000000 1.000000 1.000000
Kd 0.800000 0.800000 0.800000
Ks 0.000000 0.000000 0.000000
Ke 0.000000 0.000000 0.000000
Ni 0.000000
d 1.000000
illum 2
map_Kd textures/mat37.png
newmtl mat38
Ns 225.000000
Ka 1.000000 1.000000 1.000000
Kd 0.800000 0.800000 0.800000
Ks 0.000000 0.000000 0.000000
Ke 0.000000 0.000000 0.000000
Ni 0.000000
d 1.000000
illum 2
map_Kd textures/mat38.png
newmtl mat39
Ns 225.000000
Ka 1.000000 1.000000 1.000000
Kd 0.800000 0.800000 0.800000
Ks 0.000000 0.000000 0.000000
Ke 0.000000 0.000000 0.000000
Ni 0.000000
d 1.000000
illum 2
map_Kd textures/mat39.png
newmtl mat40
Ns 225.000000
Ka 1.000000 1.000000 1.000000
Kd 0.800000 0.800000 0.800000
Ks 0.000000 0.000000 0.000000
Ke 0.000000 0.000000 0.000000
Ni 0.000000
d 1.000000
illum 2
map_Kd textures/mat40.png
newmtl mat41
Ns 225.000000
Ka 1.000000 1.000000 1.000000
Kd 0.800000 0.800000 0.800000
Ks 0.000000 0.000000 0.000000
Ke 0.000000 0.000000 0.000000
Ni 0.000000
d 1.000000
illum 2
map_Kd textures/mat41.png
newmtl mat42
Ns 225.000000
Ka 1.000000 1.000000 1.000000
Kd 0.800000 0.800000 0.800000
Ks 0.000000 0.000000 0.000000
Ke 0.000000 0.000000 0.000000
Ni 0.000000
d 1.000000
illum 2
map_Kd textures/mat42.png
newmtl mat43
Ns 225.000000
Ka 1.000000 1.000000 1.000000
Kd 0.800000 0.800000 0.800000
Ks 0.000000 0.000000 0.000000
Ke 0.000000 0.000000 0.000000
Ni 0.000000
d 1.000000
illum 2
map_Kd textures/mat43.png
newmtl mat44
Ns 225.000000
Ka 1.000000 1.000000 1.000000
Kd 0.800000 0.800000 0.800000
Ks 0.000000 0.000000 0.000000
Ke 0.000000 0.000000 0.000000
Ni 0.000000
d 1.000000
illum 2
map_Kd textures/mat44.png
newmtl mat45
Ns 225.000000
Ka 1.000000 1.000000 1.000000
Kd 0.800000 0.800000 0.800000
Ks 0.000000 0.000000 0.000000
Ke 0.000000 0.000000 0.000000
Ni 0.000000
d 1.000000
illum 2
map_Kd textures/mat45.png
newmtl mat46
Ns 225.000000
Ka 1.000000 1.000000 1.000000
Kd 0.800000 0.800000 0.800000
Ks 0.000000 0.000000 0.000000
Ke 0.000000 0.000000 0.000000
Ni 0.000000
d 1.000000
illum 2
map_Kd textures/mat46.png
newmtl mat47
Ns 225.000000
Ka 1.000000 1.000000 1.000000
Kd 0.800000 0.800000 0.800000
Ks 0.000000 0.000000 0.000000
Ke 0.000000 0.000000 0.000000
Ni 0.000000
d 1.000000
illum 2
map_Kd textures/mat47.png
newmtl mat48
Ns 225.000000
Ka 1.000000 1.000000 1.000000
Kd 0.800000 0.800000 0.800000
Ks 0.000000 0.000000 0.000000
Ke 0.000000 0.000000 0.000000
Ni 0.000000
d 1.000000
illum 2
map_Kd textures/mat48.png
newmtl mat49
Ns 225.000000
Ka 1.000000 1.000000 1.000000
Kd 0.800000 0.800000 0.800000
Ks 0.000000 0.000000 0.000000
Ke 0.000000 0.000000 0.000000
Ni 0.000000
d 1.000000
illum 2
map_Kd textures/mat49.png
newmtl mat50
Ns 225.000000
Ka 1.000000 1.000000 1.000000
Kd 0.800000 0.800000 0.800000
Ks 0.000000 0.000000 0.000000
Ke 0.000000 0.000000 0.000000
Ni 0.000000
d 1.000000
illum 2
map_Kd textures/mat50.png
newmtl mat51
Ns 225.000000
Ka 1.000000 1.000000 1.000000
Kd 0.800000 0.800000 0.800000
Ks 0.000000 0.000000 0.000000
Ke 0.000000 0.000000 0.000000
Ni 0.000000
d 1.000000
illum 2
map_Kd textures/mat51.png
newmtl mat52
Ns 225.000000
Ka 1.000000 1.000000 1.000000
Kd 0.800000 0.800000 0.800000
Ks 0.000000 0.000000 0.000000
Ke 0.000000 0.000000 0.000000
Ni 0.000000
d 1.000000
illum 2
map_Kd textures/mat52.png
newmtl mat53
Ns 225.000000
Ka 1.000000 1.000000 1.000000
Kd 0.800000 0.800000 0.800000
Ks 0.000000 0.000000 0.000000
Ke 0.000000 0.000000 0.000000
Ni 0.000000
d 1.000000
illum 2
map_Kd textures/mat53.png
newmtl mat54
Ns 225.000000
Ka 1.000000 1.000000 1.000000
Kd 0.800000 0.800000 0.800000
Ks 0.000000 0.000000 0.000000
Ke 0.000000 0.000000 0.000000
Ni 0.000000
d 1.000000
illum 2
map_Kd textures/mat54.png
newmtl mat55
Ns 225.000000
Ka 1.000000 1.000000 1.000000
Kd 0.800000 0.800000 0.800000
Ks 0.000000 0.000000 0.000000
Ke 0.000000 0.000000 0.000000
Ni 0.000000
d 1.000000
illum 2
map_Kd textures/mat55.png
newmtl mat56
Ns 225.000000
Ka 1.000000 1.000000 1.000000
Kd 0.800000 0.800000 0.800000
Ks 0.000000 0.000000 0.000000
Ke 0.000000 0.000000 0.000000
Ni 0.000000
d 1.000000
illum 2
map_Kd textures/mat56.png
newmtl mat57
Ns 225.000000
Ka 1.000000 1.000000 1.000000
Kd 0.800000 0.800000 0.800000
Ks 0.000000 0.000000 0.000000
Ke 0.000000 0.000000 0.000000
Ni 0.000000
d 1.000000
illum 2
map_Kd textures/mat57.png
newmtl mat58
Ns 225.000000
Ka 1.000000 1.000000 1.000000
Kd 0.800000 0.800000 0.800000
Ks 0.000000 0.000000 0.000000
Ke 0.000000 0.000000 0.000000
Ni 0.000000
d 1.000000
illum 2
map_Kd textures/mat58.png
newmtl mat59
Ns 225.000000
Ka 1.000000 1.000000 1.000000
Kd 0.800000 0.800000 0.800000
Ks 0.000000 0.000000 0.000000
Ke 0.000000 0.000000 0.000000
Ni 0.000000
d 1.000000
illum 2
map_Kd textures/mat59.png
newmtl mat60
Ns 225.000000
Ka 1.000000 1.000000 1.000000
Kd 0.800000 0.800000 0.800000
Ks 0.000000 0.000000 0.000000
Ke 0.000000 0.000000 0.000000
Ni 0.000000
d 1.000000
illum 2
map_Kd textures/mat60.png
newmtl mat61
Ns 225.000000
Ka 1.000000 1.000000 1.000000
Kd 0.800000 0.800000 0.800000
Ks 0.000000 0.000000 0.000000
Ke 0.000000 0.000000 0.000000
Ni 0.000000
d 1.000000
illum 2
map_Kd textures/mat61.png
newmtl mat62
Ns 225.000000
Ka 1.000000 1.000000 1.000000
Kd 0.800000 0.800000 0.800000
Ks 0.000000 0.000000 0.000000
Ke 0.000000 0.000000 0.000000
Ni 0.000000
d 1.000000
illum 2
map_Kd textures/mat62.png
newmtl mat63
Ns 225.000000
Ka 1.000000 1.000000 1.000000
Kd 0.800000 0.800000 0.800000
Ks 0.000000 0.000000 0.000000
Ke 0.000000 0.000000 0.000000
Ni 0.000000
d 1.000000
illum 2
map_Kd textures/mat63.png
newmtl mat64
Ns 225.000000
Ka 1.000000 1.000000 1.000000
Kd 0.800000 0.800000 0.800000
Ks 0.000000 0.000000 0.000000
Ke 0.000000 0.000000 0.000000
Ni 0.000000
d 1.000000
illum 2
map_Kd textures/mat64.png
newmtl mat65
Ns 225.000000
Ka 1.000000 1.000000 1.000000
Kd 0.800000 0.800000 0.800000
Ks 0.000000 0.000000 0.000000
Ke 0.000000 0.000000 0.000000
Ni 0.000000
d 1.000000
illum 2
map_Kd textures/mat65.png
newmtl mat66
Ns 225.000000
Ka 1.000000 1.000000 1.000000
Kd 0.800000 0.800000 0.800000
Ks 0.000000 0.000000 0.000000
Ke 0.000000 0.000000 0.000000
Ni 0.000000
d 1.000000
illum 2
map_Kd textures/mat66.png
newmtl mat67
Ns 225.000000
Ka 1.000000 1.000000 1.000000
Kd 0.800000 0.800000 0.800000
Ks 0.000000 0.000000 0.000000
Ke 0.000000 0.000000 0.000000
Ni 0.000000
d 1.000000
illum 2
map_Kd textures/mat67.png
newmtl mat68
Ns 225.000000
Ka 1.000000 1.000000 1.000000
Kd 0.800000 0.800000 0.800000
Ks 0.000000 0.000000 0.000000
Ke 0.000000 0.000000 0.000000
Ni 0.000000
d 1.000000
illum 2
map_Kd textures/mat68.png
newmtl mat69
Ns 225.000000
Ka 1.000000 1.000000 1.000000
Kd 0.800000 0.800000 0.800000
Ks 0.000000 0.000000 0.000000
Ke 0.000000 0.000000 0.000000
Ni 0.000000
d 1.000000
illum 2
map_Kd textures/mat69.png
newmtl mat70
Ns 225.000000
Ka 1.000000 1.000000 1.000000
Kd 0.800000 0.800000 0.800000
Ks 0.000000 0.000000 0.000000
Ke 0.000000 0.000000 0.000000
Ni 0.000000
d 1.000000
illum 2
map_Kd textures/mat70.png
newmtl mat71
Ns 225.000000
Ka 1.000000 1.000000 1.000000
Kd 0.800000 0.800000 0.800000
Ks 0.000000 0.000000 0.000000
Ke 0.000000 0.000000 0.000000
Ni 0.000000
d 1.000000
illum 2
map_Kd textures/mat71.png
newmtl mat72
Ns 225.000000
Ka 1.000000 1.000000 1.000000
Kd 0.800000 0.800000 0.800000
Ks 0.000000 0.000000 0.000000
Ke 0.000000 0.000000 0.000000
Ni 0.000000
d 1.000000
illum 2
map_Kd textures/mat72.png
newmtl mat73
Ns 225.000000
Ka 1.000000 1.000000 1.000000
Kd 0.800000 0.800000 0.800000
Ks 0.000000 0.000000 0.000000
Ke 0.000000 0.000000 0.000000
Ni 0.000000
d 1.000000
illum 2
map_Kd textures/mat73.png
newmtl mat74
Ns 225.000000
Ka 1.000000 1.000000 1.000000
Kd 0.800000 0.800000 0.800000
Ks 0.000000 0.000000 0.000000
Ke 0.000000 0.000000 0.000000
Ni 0.000000
d 1.000000
illum 2
map_Kd textures/mat74.png
newmtl mat75
Ns 225.000000
Ka 1.000000 1.000000 1.000000
Kd 0.800000 0.800000 0.800000
Ks 0.000000 0.000000 0.000000
Ke 0.000000 0.000000 0.000000
Ni 0.000000
d 1.000000
illum 2
map_Kd textures/mat75.png
newmtl mat76
Ns 225.000000
Ka 1.000000 1.000000 1.000000
Kd 0.800000 0.800000 0.800000
Ks 0.000000 0.000000 0.000000
Ke 0.000000 0.000000 0.000000
Ni 0.000000
d 1.000000
illum 2
map_Kd textures/mat76.png
newmtl mat77
Ns 225.000000
Ka 1.000000 1.000000 1.000000
Kd 0.800000 0.800000 0.800000
Ks 0.000000 0.000000 0.000000
Ke 0.000000 0.000000 0.000000
Ni 0.000000
d 1.000000
illum 2
map_Kd textures/mat77.png
newmtl mat78
Ns 225.000000
Ka 1.000000 1.000000 1.000000
Kd 0.800000 0.800000 0.800000
Ks 0.000000 0.000000 0.000000
Ke 0.000000 0.000000 0.000000
Ni 0.000000
d 1.000000
illum 2
map_Kd textures/mat78.png
newmtl mat79
Ns 225.000000
Ka 1.000000 1.000000 1.000000
Kd 0.800000 0.800000 0.800000
Ks 0.000000 0.000000 0.000000
Ke 0.000000 0.000000 0.000000
Ni 0.000000
d 1.000000
illum 2
map_Kd textures/mat79.png
newmtl mat80
Ns 225.000000
Ka 1.000000 1.000000 1.000000
Kd 0.800000 0.800000 0.800000
Ks 0.000000 0.000000 0.000000
Ke 0.000000 0.000000 0.000000
Ni 0.000000
d 1.000000
illum 2
map_Kd textures/mat80.png
newmtl mat81
Ns 225.000000
Ka 1.000000 1.000000 1.000000
Kd 0.800000 0.800000 0.800000
Ks 0.000000 0.000000 0.000000
Ke 0.000000 0.000000 0.000000
Ni 0.000000
d 1.000000
illum 2
map_Kd textures/mat81.png
newmtl mat82
Ns 225.000000
Ka 1.000000 1.000000 1.000000
Kd 0.800000 0.800000 0.800000
Ks 0.000000 0.000000 0.000000
Ke 0.000000 0.000000 0.000000
Ni 0.000000
d 1.000000
illum 2
map_Kd textures/mat82.png
newmtl mat83
Ns 225.000000
Ka 1.000000 1.000000 1.000000
Kd 0.800000 0.800000 0.800000
Ks 0.000000 0.000000 0.000000
Ke 0.000000 0.000000 0.000000
Ni 0.000000
d 1.000000
illum 2
map_Kd textures/mat83.png
newmtl mat84
Ns 225.000000
Ka 1.000000 1.000000 1.000000
Kd 0.800000 0.800000 0.800000
Ks 0.000000 0.000000 0.000000
Ke 0.000000 0.000000 0.000000
Ni 0.000000
d 1.000000
illum 2
map_Kd textures/mat84.png
newmtl mat85
Ns 225.000000
Ka 1.000000 1.000000 1.000000
Kd 0.800000 0.800000 0.800000
Ks 0.000000 0.000000 0.000000
Ke 0.000000 0.000000 0.000000
Ni 0.000000
d 1.000000
illum 2
map_Kd textures/mat85.png
newmtl mat86
Ns 225.000000
Ka 1.000000 1.000000 1.000000
Kd 0.800000 0.800000 0.800000
Ks 0.000000 0.000000 0.000000
Ke 0.000000 0.000000 0.000000
Ni 0.000000
d 1.000000
illum 2
map_Kd textures/mat86.png
newmtl mat87
Ns 225.000000
Ka 1.000000 1.000000 1.000000
Kd 0.800000 0.800000 0.800000
Ks 0.000000 0.000000 0.000000
Ke 0.000000 0.000000 0.000000
Ni 0.000000
d 1.000000
illum 2
map_Kd textures/mat87.png
newmtl mat88
Ns 225.000000
Ka 1.000000 1.000000 1.000000
Kd 0.800000 0.800000 0.800000
Ks 0.000000 0.000000 0.000000
Ke 0.000000 0.000000 0.000000
Ni 0.000000
d 1.000000
illum 2
map_Kd textures/mat88.png
newmtl mat89
Ns 225.000000
Ka 1.000000 1.000000 1.000000
Kd 0.800000 0.800000 0.800000
Ks 0.000000 0.000000 0.000000
Ke 0.000000 0.000000 0.000000
Ni 0.000000
d 1.000000
illum 2
map_Kd textures/mat89.png
newmtl mat90
Ns 225.000000
Ka 1.000000 1.000000 1.000000
Kd 0.800000 0.800000 0.800000
Ks 0.000000 0.000000 0.000000
Ke 0.000000 0.000000 0.000000
Ni 0.000000
d 1.000000
illum 2
map_Kd textures/mat90.png
newmtl mat91
Ns 225.000000
Ka 1.000000 1.000000 1.000000
Kd 0.800000 0.800000 0.800000
Ks 0.000000 0.000000 0.000000
Ke 0.000000 0.000000 0.000000
Ni 0.000000
d 1.000000
illum 2
map_Kd textures/mat91.png
newmtl mat92
Ns 225.000000
Ka 1.000000 1.000000 1.000000
Kd 0.800000 0.800000 0.800000
Ks 0.000000 0.000000 0.000000
Ke 0.000000 0.000000 0.000000
Ni 0.000000
d 1.000000
illum 2
map_Kd textures/mat92.png
newmtl mat93
Ns 225.000000
Ka 1.000000 1.000000 1.000000
Kd 0.800000 0.800000 0.800000
Ks 0.000000 0.000000 0.000000
Ke 0.000000 0.000000 0.000000
Ni 0.000000
d 1.000000
illum 2
map_Kd textures/mat93.png
newmtl mat94
Ns 225.000000
Ka 1.000000 1.000000 1.000000
Kd 0.800000 0.800000 0.800000
Ks 0.000000 0.000000 0.000000
Ke 0.000000 0.000000 0.000000
Ni 0.000000
d 1.000000
illum 2
map_Kd textures/mat94.png
newmtl mat95
Ns 225.000000
Ka 1.000000 1.000000 1.000000
Kd 0.800000 0.800000 0.800000
Ks 0.000000 0.000000 0.000000
Ke 0.000000 0.000000 0.000000
Ni 0.000000
d 1.000000
illum 2
map_Kd textures/mat95.png
newmtl mat96
Ns 225.000000
Ka 1.000000 1.000000 1.000000
Kd 0.800000 0.800000 0.800000
Ks 0.000000 0.000000 0.000000
Ke 0.000000 0.000000 0.000000
Ni 0.000000
d 1.000000
illum 2
map_Kd textures/mat96.png
newmtl mat97
Ns 225.000000
Ka 1.000000 1.000000 1.000000
Kd 0.800000 0.800000 0.800000
Ks 0.000000 0.000000 0.000000
Ke 0.000000 0.000000 0.000000
Ni 0.000000
d 1.000000
illum 2
map_Kd textures/mat97.png
newmtl mat98
Ns 225.000000
Ka 1.000000 1.000000 1.000000
Kd 0.800000 0.800000 0.800000
Ks 0.000000 0.000000 0.000000
Ke 0.000000 0.000000 0.000000
Ni 0.000000
d 1.000000
illum 2
map_Kd textures/mat98.png
newmtl mat99
Ns 225.000000
Ka 1.000000 1.000000 1.000000
Kd 0.800000 0.800000 0.800000
Ks 0.000000 0.000000 0.000000
Ke 0.000000 0.000000 0.000000
Ni 0.000000
d 1.000000
illum 2
map_Kd textures/mat99.png
newmtl mat100
Ns 225.000000
Ka 1.000000 1.000000 1.000000
Kd 0.800000 0.800000 0.800000
Ks 0.000000 0.000000 0.000000
Ke 0.000000 0.000000 0.000000
Ni 0.000000
d 1.000000
illum 2
map_Kd textures/mat100.png
