# Blender MTL File: 'materials.blend'
# Material Count: 7

newmtl LinkTexture
Ns 225.000000
Ka 1.000000 1.000000 1.000000
Kd 0.800000 0.800000 0.800000
Ks 0.500000 0.500000 0.500000
Ke 0.000000 0.000000 0.000000
Ni 1.450000
d 1.000000
illum 2
map_Kd textures/icons8-broken-link-100.png

newmtl connected
Ns 225.000000
Ka 1.000000 1.000000 1.000000
Kd 0.800000 0.800000 0.800000
Ks 0.500000 0.500000 0.500000
Ke 0.000000 0.000000 0.000000
Ni 1.450000
d 1.000000
illum 2

newmtl not_connected
Ns 225.000000
Ka 1.000000 1.000000 1.000000
Kd 0.800000 0.472159 0.000000
Ks 0.500000 0.500000 0.500000
Ke 0.000000 0.000000 0.000000
Ni 1.450000
d 1.000000
illum 2

newmtl percent_default
Ns 225.000000
Ka 1.000000 1.000000 1.000000
Kd 0.420025 0.420025 0.420025
Ks 0.500000 0.500000 0.500000
Ke 0.000000 0.000000 0.000000
Ni 1.450000
d 1.000000
illum 2

newmtl percent_high
Ns 225.000000
Ka 1.000000 1.000000 1.000000
Kd 0.293636 0.800000 0.222305
Ks 0.500000 0.500000 0.500000
Ke 0.000000 0.000000 0.000000
Ni 1.450000
d 1.000000
illum 2

newmtl percent_low
Ns 323.999994
Ka 1.000000 1.000000 1.000000
Kd 0.800000 0.073747 0.092156
Ks 0.500000 0.500000 0.500000
Ke 0.000000 0.000000 0.000000
Ni 1.450000
d 1.000000
illum 2

newmtl transparent
Ns 225.000000
Ka 1.000000 1.000000 1.000000
Kd 0.000000 0.000000 0.000000
Ks 0.000000 0.000000 0.000000
Ke 0.000000 0.000000 0.000000
Ni 0.000000
d 1.000000
illum 1
map_Kd textures/transparent.png
